<?xml version="1.0" encoding="utf-8"?>
<!-- Generator: Adobe Illustrator 23.0.1, SVG Export Plug-In . SVG Version: 6.00 Build 0)  -->
<svg version="1.1" id="Layer_1" xmlns="http://www.w3.org/2000/svg" xmlns:xlink="http://www.w3.org/1999/xlink" x="0px" y="0px"
	 width="595.3px" height="841.9px" viewBox="0 0 595.3 841.9" style="enable-background:new 0 0 595.3 841.9;" xml:space="preserve"
	>
<style type="text/css">
	.st0{fill:#FFCDE3;}
	.st1{fill:#1E1E1E;}
</style>
<g>
	<path class="st0" d="M177,425.2l-74.1-74.1c-9-9-13.9-20.9-13.9-33.7c0-26.3,21.4-47.6,47.6-47.6c12.7,0,24.7,5,33.7,13.9l6.7,6.7
		l6.7-6.7c9-9,20.9-13.9,33.7-13.9c26.3,0,47.6,21.4,47.6,47.6c0,12.7-5,24.7-13.9,33.7L177,425.2z"/>
	<rect x="321" y="205.9" class="st0" width="192" height="432"/>
	<path class="st1" d="M117.7,173.9L49,242.6v427.3h496v-496L117.7,173.9L117.7,173.9z M113,201.2v36.7H76.3L113,201.2z M529,653.9
		H305v-224h-16v224H65v-400h64v-64h160v224h16v-224h224V653.9z"/>
	<path class="st1" d="M401,349.9c19.6,0,35.8-14.1,39.3-32.7c18.6-3.4,32.7-19.7,32.7-39.3c0-22.1-17.9-40-40-40
		c-19.6,0-35.8,14.1-39.3,32.7c-18.6,3.4-32.7,19.7-32.7,39.3C361,331.9,378.9,349.9,401,349.9L401,349.9z M433,253.9
		c13.2,0,24,10.8,24,24c0,10.8-7.3,19.9-17.1,22.9c-3.5-14.7-15-26.3-29.7-29.7C413.1,261.2,422.2,253.9,433,253.9L433,253.9z
		 M422.4,299.3c-4.7-2.3-8.6-6.2-10.9-10.9C416.3,290.8,420.1,294.6,422.4,299.3L422.4,299.3z M394.1,287
		c3.5,14.7,15,26.3,29.7,29.7c-3,9.9-12,17.1-22.9,17.1c-13.2,0-24-10.8-24-24C377,299,384.3,290,394.1,287L394.1,287z"/>
	<rect x="353" y="397.9" class="st1" width="56" height="16"/>
	<rect x="425" y="397.9" class="st1" width="56" height="16"/>
	<rect x="353" y="429.9" class="st1" width="56" height="16"/>
	<rect x="425" y="429.9" class="st1" width="56" height="16"/>
	<rect x="353" y="461.9" class="st1" width="56" height="16"/>
	<rect x="425" y="461.9" class="st1" width="56" height="16"/>
	<rect x="353" y="365.9" class="st1" width="128" height="16"/>
	<rect x="353" y="493.9" class="st1" width="128" height="16"/>
	<path class="st1" d="M481,605.9v-80H353v80H481z M369,541.9h96v48h-96V541.9z"/>
	<rect x="81" y="445.9" class="st1" width="192" height="16"/>
	<rect x="81" y="477.9" class="st1" width="192" height="16"/>
	<rect x="145" y="509.9" class="st1" width="128" height="16"/>
	<rect x="145" y="541.9" class="st1" width="128" height="16"/>
	<rect x="81" y="573.9" class="st1" width="192" height="16"/>
	<rect x="81" y="605.9" class="st1" width="192" height="16"/>
	<path class="st1" d="M129,509.9H81v48h48V509.9z M113,541.9H97v-16h16V541.9z"/>
</g>
</svg>
